{
    "comment": "The nets with this date tag 2018-09-28 are there to test different sets of input variabless",
    "name": "2018-09-20-LSTM25-a",
    "model": "learning/models/LSTM25.h5",
    "make_plots": true,
    "use_weights": true,
    "higgs": {
        "data": "data/higgs/higgs_train.h5",
        "test_data": "data/higgs/higgs_test.h5",
        "max_read": 110000
    },
    "top": {
        "data": "data/top/top_train.h5",
        "test_data": "data/top/top_test.h5",
        "max_read": 110000
    },
    "qcd": {
        "data": "data/qcd/qcd_train.h5",
        "test_data": "data/qcd/qcd_test.h5",
        "max_read": 110000
    },
    "normalization": "data/normalization.json",
    "adam": {
        "lr": 0.001
    },
    "batch-size": 32,
    "variables": [
        "numberOfInnermostPixelLayerHits",
        "numberOfNextToInnermostPixelLayerHits",
        "numberOfPixelHits",
        "numberOfPixelHoles",
        "numberOfPixelSharedHits",
        "numberOfPixelSplitHits",
        "numberOfSCTHits",
        "numberOfSCTHoles",
        "numberOfSCTSharedHits",
        "IP3D_signed_d0",
        "IP3D_signed_z0",
        "IP3D_signed_d0_significance",
        "IP3D_signed_z0_significance",
        "dr_fj",
        "ptfrac_fj",
        "min_deta",
        "max_deta",
        "pt_fj",
        "mass_fj"
    ]
}