{
    "name": "2018-09-02-LSTM25-e",
    "model": "learning/models/LSTM25.h5",
    "make_plots": true,
    "use_weights": true,
    "higgs": {
        "data": "data/higgs/higgs_train.h5",
        "max_read": 110000
    },
    "top": {
        "data": "data/top/top_train.h5",
        "max_read": 110000
    },
    "qcd": {
        "data": "data/qcd/qcd_train.h5",
        "max_read": 110000
    },
    "adam": {
        "lr": 0.001
    },
    "batch-size": 64
}
